## Interface: 80205
## Author: cqwrteur
## Title: Raider.IO LOD Database EU Alliance Raid
## Version: @project-version@
## LoadOnDemand: 1
## X-RAIDER-IO-LOD: 3
## X-RAIDER-IO-LOD-FACTION: Alliance

db/db_raiding_eu_alliance_characters.lua
db/db_raiding_eu_alliance_lookup.lua
